{
  "realm" : "master",
  "users" : [ {
    "id" : "11d3014b-3b7d-44a3-9879-cd21bb528db0",
    "createdTimestamp" : 1615385062708,
    "username" : "admin",
    "enabled" : true,
    "totp" : false,
    "emailVerified" : false,
    "credentials" : [ {
      "id" : "f0ead81d-8cd4-4f99-84d0-d49b0230e0d8",
      "type" : "password",
      "createdDate" : 1615385062872,
      "secretData" : "{\"value\":\"2sAtfwZIfQAT8LncPyAdO6oOsWMTuPFyjLUD/xOKgxADo59AivLFxkkZxcJCK5nnDWSrNj6eAWCIqgxUCu6AHQ==\",\"salt\":\"a5oQFnaB135a8+vCx4f5Dg==\",\"additionalParameters\":{}}",
      "credentialData" : "{\"hashIterations\":27500,\"algorithm\":\"pbkdf2-sha256\",\"additionalParameters\":{}}"
    } ],
    "disableableCredentialTypes" : [ ],
    "requiredActions" : [ ],
    "realmRoles" : [ "uma_authorization", "offline_access", "admin" ],
    "clientRoles" : {
      "account" : [ "manage-account", "view-profile" ]
    },
    "notBefore" : 0,
    "groups" : [ ]
  } ]
}