{
  "realm" : "myrealm",
  "users" : [ {
    "id" : "c9bc399d-cb18-49fa-8b5a-f76e54da83a2",
    "createdTimestamp" : 1615385249569,
    "username" : "myuser",
    "enabled" : true,
    "totp" : false,
    "emailVerified" : true,
    "firstName" : "My Test",
    "lastName" : "User",
    "email" : "myuser@example.com",
    "credentials" : [ {
      "id" : "18f73855-4721-4b0b-94ed-d0c7184b558a",
      "type" : "password",
      "createdDate" : 1615385257145,
      "secretData" : "{\"value\":\"OB7kV0hmDYc2a06B6eL9ZJ2j4llBrHtFt9LjCo4XZNxiCQYbzAYlt6KEaOl4j9pcfztrm+7OB/d79O+kY3zz5g==\",\"salt\":\"ATehLUmiDtVOA3s6yV5icg==\",\"additionalParameters\":{}}",
      "credentialData" : "{\"hashIterations\":27500,\"algorithm\":\"pbkdf2-sha256\",\"additionalParameters\":{}}"
    } ],
    "disableableCredentialTypes" : [ ],
    "requiredActions" : [ ],
    "realmRoles" : [ "offline_access", "uma_authorization" ],
    "clientRoles" : {
      "account" : [ "manage-account", "view-profile" ]
    },
    "notBefore" : 0,
    "groups" : [ "/logs/writers" ]
  }, {
    "id" : "4dcdcedf-2594-42b4-b449-653482b8f7ec",
    "createdTimestamp" : 1615796724947,
    "username" : "readuser",
    "enabled" : true,
    "totp" : false,
    "emailVerified" : true,
    "firstName" : "Read Only",
    "lastName" : "User",
    "email" : "readuser@example.com",
    "credentials" : [ {
      "id" : "f0e2118b-8833-40df-845f-58d30fd6d2c5",
      "type" : "password",
      "createdDate" : 1615796734679,
      "secretData" : "{\"value\":\"nUsmTFTX2H7qhdlhjho72JOh6mGuQtX0DyhmuplTZIXyhT4u1HrxPWz0v5sYubiCQNFTsLgb6wlWhbv4sjF0pA==\",\"salt\":\"hiA/kglr5637rZRgdT7QGg==\",\"additionalParameters\":{}}",
      "credentialData" : "{\"hashIterations\":27500,\"algorithm\":\"pbkdf2-sha256\",\"additionalParameters\":{}}"
    } ],
    "disableableCredentialTypes" : [ ],
    "requiredActions" : [ ],
    "realmRoles" : [ "offline_access", "uma_authorization" ],
    "clientRoles" : {
      "account" : [ "manage-account", "view-profile" ]
    },
    "notBefore" : 0,
    "groups" : [ "/logs" ]
  } ]
}