[
  {
    "referer": "https://public.corp.demo.magnolia-cms.cn/",
    "method": "GET",
    "isp": "境外运营商",
    "remote_port": "60330",
    "ua": "Mozilla/5.0 (Macintosh; Intel Mac OS X 10.15; rv:93.0) Gecko/20100101 Firefox/93.0",
    "uuid": "2789278574397287269",
    "version": "1",
    "file_size": "9626",
    "url": "/.imaging/mte/corpweb2021/1440/dam/general/core-imagery/Speed/hero-image-2.jpg/jcr:content/hero%20image%202.jpg",
    "request_range": "-",
    "rsp_size": "97016",
    "hit": "hit",
    "request_time": "21",
    "http_code": "200",
    "param": "-",
    "proto": "HTTPS",
    "host": "public.corp.demo.magnolia-cms.cn",
    "client_ip": "14.226.235.239",
    "time": "1635816703",
    "app_id": "1305782079",
    "prov": "境外"
  },
  {
    "referer": "https://public.corp.demo.magnolia-cms.cn/",
    "method": "GET",
    "isp": "境外运营商",
    "remote_port": "60328",
    "ua": "Mozilla/5.0 (Macintosh; Intel Mac OS X 10.15; rv:93.0) Gecko/20100101 Firefox/93.0",
    "uuid": "8771030873592013403",
    "version": "1",
    "file_size": "35229",
    "url": "/.imaging/mte/corpweb2021/900/dam/general/general-logos/Headless-blue.jpeg/jcr:content/Headless%20blue.jpeg",
    "request_range": "-",
    "rsp_size": "35981",
    "hit": "hit",
    "request_time": "22",
    "http_code": "200",
    "param": "-",
    "proto": "HTTPS",
    "host": "public.corp.demo.magnolia-cms.cn",
    "client_ip": "14.226.235.239",
    "time": "1635816703",
    "app_id": "1305782079",
    "prov": "境外"
  },
  {
    "referer": "https://author.corp.demo.magnolia-cms.cn/",
    "method": "GET",
    "isp": "境外运营商",
    "remote_port": "60329",
    "ua": "Mozilla/5.0 (Macintosh; Intel Mac OS X 10.15; rv:93.0) Gecko/20100101 Firefox/93.0",
    "uuid": "6866402885331149848",
    "version": "1",
    "file_size": "34880",
    "url": "/.imaging/mte/corpweb2021/900/dam/general/general-logos/DXP.jpg/jcr:content/DXP.jpg",
    "request_range": "-",
    "rsp_size": "35632",
    "hit": "hit",
    "request_time": "38",
    "http_code": "200",
    "param": "-",
    "proto": "HTTPS",
    "host": "author.corp.demo.magnolia-cms.cn",
    "client_ip": "14.226.235.239",
    "time": "1635816703",
    "app_id": "1305782079",
    "prov": "境外"
  }
]